{"id": 1,
  "gelaran": "PPTMK",
  "nama": "Barbara Gomez",
  "unit": 1
},{
"id": 2,
"gelaran": "PPTM",
"nama": "Nicholas Turner",
"unit": 2
}, {
"id": 3,
"gelaran": "PPTMK",
"nama": "Marilyn Phillips",
"unit": 3
}, {
"id": 4,
"gelaran": "PPTMK",
"nama": "Norma Cook",
"unit": 4
}, {
"id": 5,
"gelaran": "PPTMK",
"nama": "Stephen Martinez",
"unit": 5
}